%YAML 1.1
%TAG !u! tag:unity3d.com,2011:
--- !u!1001 &5391589170822661061
PrefabInstance:
  m_ObjectHideFlags: 0
  serializedVersion: 2
  m_Modification:
    m_TransformParent: {fileID: 0}
    m_Modifications:
    - target: {fileID: 2219506012673961829, guid: 632912757b54543a093c53e690adf81c,
        type: 3}
      propertyPath: m_LocalPosition.x
      value: 0
      objectReference: {fileID: 0}
    - target: {fileID: 2219506012673961829, guid: 632912757b54543a093c53e690adf81c,
        type: 3}
      propertyPath: m_LocalPosition.y
      value: 0
      objectReference: {fileID: 0}
    - target: {fileID: 2219506012673961829, guid: 632912757b54543a093c53e690adf81c,
        type: 3}
      propertyPath: m_LocalPosition.z
      value: 0
      objectReference: {fileID: 0}
    - target: {fileID: 2219506012673961829, guid: 632912757b54543a093c53e690adf81c,
        type: 3}
      propertyPath: m_LocalRotation.x
      value: 0
      objectReference: {fileID: 0}
    - target: {fileID: 2219506012673961829, guid: 632912757b54543a093c53e690adf81c,
        type: 3}
      propertyPath: m_LocalRotation.y
      value: 0
      objectReference: {fileID: 0}
    - target: {fileID: 2219506012673961829, guid: 632912757b54543a093c53e690adf81c,
        type: 3}
      propertyPath: m_LocalRotation.z
      value: 0
      objectReference: {fileID: 0}
    - target: {fileID: 2219506012673961829, guid: 632912757b54543a093c53e690adf81c,
        type: 3}
      propertyPath: m_LocalRotation.w
      value: 1
      objectReference: {fileID: 0}
    - target: {fileID: 2219506012673961829, guid: 632912757b54543a093c53e690adf81c,
        type: 3}
      propertyPath: m_RootOrder
      value: 0
      objectReference: {fileID: 0}
    - target: {fileID: 2219506012673961829, guid: 632912757b54543a093c53e690adf81c,
        type: 3}
      propertyPath: m_LocalEulerAnglesHint.x
      value: 0
      objectReference: {fileID: 0}
    - target: {fileID: 2219506012673961829, guid: 632912757b54543a093c53e690adf81c,
        type: 3}
      propertyPath: m_LocalEulerAnglesHint.y
      value: 0
      objectReference: {fileID: 0}
    - target: {fileID: 2219506012673961829, guid: 632912757b54543a093c53e690adf81c,
        type: 3}
      propertyPath: m_LocalEulerAnglesHint.z
      value: 0
      objectReference: {fileID: 0}
    - target: {fileID: 2219506012673961830, guid: 632912757b54543a093c53e690adf81c,
        type: 3}
      propertyPath: cardName
      value: Garudamon
      objectReference: {fileID: 0}
    - target: {fileID: 2219506012673961830, guid: 632912757b54543a093c53e690adf81c,
        type: 3}
      propertyPath: memoryCost
      value: 6
      objectReference: {fileID: 0}
    - target: {fileID: 2219506012673961830, guid: 632912757b54543a093c53e690adf81c,
        type: 3}
      propertyPath: cardID
      value: ST1-08
      objectReference: {fileID: 0}
    - target: {fileID: 2219506012673961830, guid: 632912757b54543a093c53e690adf81c,
        type: 3}
      propertyPath: colour
      value: 1
      objectReference: {fileID: 0}
    - target: {fileID: 2219506012673961830, guid: 632912757b54543a093c53e690adf81c,
        type: 3}
      propertyPath: level
      value: 5
      objectReference: {fileID: 0}
    - target: {fileID: 2219506012673961830, guid: 632912757b54543a093c53e690adf81c,
        type: 3}
      propertyPath: species
      value: 9
      objectReference: {fileID: 0}
    - target: {fileID: 2219506012673961830, guid: 632912757b54543a093c53e690adf81c,
        type: 3}
      propertyPath: attribute
      value: 1
      objectReference: {fileID: 0}
    - target: {fileID: 2219506012673961830, guid: 632912757b54543a093c53e690adf81c,
        type: 3}
      propertyPath: DP
      value: 7000
      objectReference: {fileID: 0}
    - target: {fileID: 2219506012673961831, guid: 632912757b54543a093c53e690adf81c,
        type: 3}
      propertyPath: m_Name
      value: ST1-08-Garudamon
      objectReference: {fileID: 0}
    - target: {fileID: 4397057812852215807, guid: 632912757b54543a093c53e690adf81c,
        type: 3}
      propertyPath: m_AssetId
      value: 
      objectReference: {fileID: 0}
    - target: {fileID: 5043137680194831248, guid: 632912757b54543a093c53e690adf81c,
        type: 3}
      propertyPath: m_AssetId
      value: 
      objectReference: {fileID: 0}
    - target: {fileID: 6480231210696498898, guid: 632912757b54543a093c53e690adf81c,
        type: 3}
      propertyPath: m_AssetId
      value: 
      objectReference: {fileID: 0}
    m_RemovedComponents: []
  m_SourcePrefab: {fileID: 100100000, guid: 632912757b54543a093c53e690adf81c, type: 3}
